<?xml version="1.0" encoding="UTF-8" standalone="no"?>
<svg
   xmlns:dc="http://purl.org/dc/elements/1.1/"
   xmlns:cc="http://creativecommons.org/ns#"
   xmlns:rdf="http://www.w3.org/1999/02/22-rdf-syntax-ns#"
   xmlns:svg="http://www.w3.org/2000/svg"
   xmlns="http://www.w3.org/2000/svg"
   xmlns:sodipodi="http://sodipodi.sourceforge.net/DTD/sodipodi-0.dtd"
   xmlns:inkscape="http://www.inkscape.org/namespaces/inkscape"
   sodipodi:docname="3pages-in-row.svg"
   inkscape:version="1.1-dev (3322b9cb8d, 2019-12-31, custom)"
   id="svg8"
   version="1.1"
   viewBox="0 0 210 297"
   height="297mm"
   width="210mm">
  <defs
     id="defs2" />
  <sodipodi:namedview
     inkscape:window-maximized="1"
     inkscape:window-y="0"
     inkscape:window-x="0"
     inkscape:window-height="1007"
     inkscape:window-width="2560"
     inkscape:snap-page="true"
     inkscape:snap-bbox="true"
     showgrid="false"
     inkscape:document-rotation="0"
     inkscape:current-layer="layer1"
     inkscape:document-units="mm"
     inkscape:cy="217.14286"
     inkscape:cx="607.14286"
     inkscape:zoom="0.35"
     inkscape:pageshadow="2"
     inkscape:pageopacity="0.0"
     borderopacity="1.0"
     bordercolor="#666666"
     pagecolor="#ffffff"
     id="base" />
  <metadata
     id="metadata5">
    <rdf:RDF>
      <cc:Work
         rdf:about="">
        <dc:format>image/svg+xml</dc:format>
        <dc:type
           rdf:resource="http://purl.org/dc/dcmitype/StillImage" />
        <dc:title></dc:title>
      </cc:Work>
    </rdf:RDF>
  </metadata>
  <g
     id="layer1"
     inkscape:groupmode="layer"
     inkscape:label="Layer 1">
    <rect
       style="stroke-width:0.264583;fill:#ff8c8c;fill-opacity:1"
       y="0"
       x="0"
       height="297"
       width="210"
       id="rect10" />
    <rect
       id="rect10-3"
       width="210"
       height="297"
       x="210"
       y="1.5258789e-05"
       style="fill:#8cffba;fill-opacity:1;stroke-width:0.264583" />
    <rect
       id="rect10-6"
       width="210"
       height="297"
       x="420"
       y="1.5258789e-05"
       style="fill:#8cc2ff;fill-opacity:1;stroke-width:0.264583" />
    <text
       id="text890"
       y="174.24339"
       x="85.832405"
       style="font-size:85.2448px;line-height:1.25;font-family:Helvetica;-inkscape-font-specification:Helvetica;letter-spacing:0px;word-spacing:0px;stroke-width:2.13112"
       xml:space="preserve"><tspan
         style="stroke-width:2.13112"
         y="174.24339"
         x="85.832405"
         id="tspan888"
         sodipodi:role="line">1</tspan></text>
    <text
       xml:space="preserve"
       style="font-size:85.2448px;line-height:1.25;font-family:Helvetica;-inkscape-font-specification:Helvetica;letter-spacing:0px;word-spacing:0px;stroke-width:2.13112"
       x="291.73251"
       y="178.40645"
       id="text890-6"><tspan
         sodipodi:role="line"
         id="tspan888-2"
         x="291.73251"
         y="178.40645"
         style="stroke-width:2.13112">2</tspan></text>
    <text
       xml:space="preserve"
       style="font-size:85.2448px;line-height:1.25;font-family:Helvetica;-inkscape-font-specification:Helvetica;letter-spacing:0px;word-spacing:0px;stroke-width:2.13112"
       x="502.12793"
       y="177.53236"
       id="text890-9"><tspan
         sodipodi:role="line"
         id="tspan888-1"
         x="502.12793"
         y="177.53236"
         style="stroke-width:2.13112">3</tspan></text>
  </g>
</svg>
